^C:\USERS\USER\DESKTOP\CLOUD TEMA 1 - COPY\GENERATED\HELLOREPLY.GRPC.PB.CC|C:\USERS\USER\DESKTOP\CLOUD TEMA 1 - COPY\GENERATED\HELLOREPLY.PB.CC|C:\USERS\USER\DESKTOP\CLOUD TEMA 1 - COPY\GENERATED\HELLOREQUEST.GRPC.PB.CC|C:\USERS\USER\DESKTOP\CLOUD TEMA 1 - COPY\GENERATED\HELLOREQUEST.PB.CC|C:\USERS\USER\DESKTOP\CLOUD TEMA 1 - COPY\GENERATED\MESSAGE.GRPC.PB.CC|C:\USERS\USER\DESKTOP\CLOUD TEMA 1 - COPY\GENERATED\MESSAGE.PB.CC
C:\USERS\USER\DESKTOP\CLOUD TEMA 1 - COPY\CLOUD TEMA 1\DEBUG\GENERATED.PDB
C:\USERS\USER\DESKTOP\CLOUD TEMA 1 - COPY\CLOUD TEMA 1\DEBUG\GENERATED.IDB
C:\USERS\USER\DESKTOP\CLOUD TEMA 1 - COPY\CLOUD TEMA 1\DEBUG\MESSAGE.PB.NATIVECODEANALYSIS.SARIF
C:\USERS\USER\DESKTOP\CLOUD TEMA 1 - COPY\CLOUD TEMA 1\DEBUG\MESSAGE.PB.NATIVECODEANALYSIS.XML
C:\USERS\USER\DESKTOP\CLOUD TEMA 1 - COPY\CLOUD TEMA 1\DEBUG\MESSAGE.GRPC.PB.NATIVECODEANALYSIS.SARIF
C:\USERS\USER\DESKTOP\CLOUD TEMA 1 - COPY\CLOUD TEMA 1\DEBUG\MESSAGE.GRPC.PB.NATIVECODEANALYSIS.XML
C:\USERS\USER\DESKTOP\CLOUD TEMA 1 - COPY\CLOUD TEMA 1\DEBUG\HELLOREQUEST.PB.NATIVECODEANALYSIS.SARIF
C:\USERS\USER\DESKTOP\CLOUD TEMA 1 - COPY\CLOUD TEMA 1\DEBUG\HELLOREQUEST.PB.NATIVECODEANALYSIS.XML
C:\USERS\USER\DESKTOP\CLOUD TEMA 1 - COPY\CLOUD TEMA 1\DEBUG\HELLOREQUEST.GRPC.PB.NATIVECODEANALYSIS.SARIF
C:\USERS\USER\DESKTOP\CLOUD TEMA 1 - COPY\CLOUD TEMA 1\DEBUG\HELLOREQUEST.GRPC.PB.NATIVECODEANALYSIS.XML
C:\USERS\USER\DESKTOP\CLOUD TEMA 1 - COPY\CLOUD TEMA 1\DEBUG\HELLOREPLY.PB.NATIVECODEANALYSIS.SARIF
C:\USERS\USER\DESKTOP\CLOUD TEMA 1 - COPY\CLOUD TEMA 1\DEBUG\HELLOREPLY.PB.NATIVECODEANALYSIS.XML
C:\USERS\USER\DESKTOP\CLOUD TEMA 1 - COPY\CLOUD TEMA 1\DEBUG\HELLOREPLY.GRPC.PB.NATIVECODEANALYSIS.SARIF
C:\USERS\USER\DESKTOP\CLOUD TEMA 1 - COPY\CLOUD TEMA 1\DEBUG\HELLOREPLY.GRPC.PB.NATIVECODEANALYSIS.XML
C:\USERS\USER\DESKTOP\CLOUD TEMA 1 - COPY\CLOUD TEMA 1\DEBUG\HELLOREPLY.GRPC.PB.OBJ
C:\USERS\USER\DESKTOP\CLOUD TEMA 1 - COPY\CLOUD TEMA 1\DEBUG\HELLOREPLY.PB.OBJ
C:\USERS\USER\DESKTOP\CLOUD TEMA 1 - COPY\CLOUD TEMA 1\DEBUG\HELLOREQUEST.GRPC.PB.OBJ
C:\USERS\USER\DESKTOP\CLOUD TEMA 1 - COPY\CLOUD TEMA 1\DEBUG\HELLOREQUEST.PB.OBJ
C:\USERS\USER\DESKTOP\CLOUD TEMA 1 - COPY\CLOUD TEMA 1\DEBUG\MESSAGE.GRPC.PB.OBJ
C:\USERS\USER\DESKTOP\CLOUD TEMA 1 - COPY\CLOUD TEMA 1\DEBUG\MESSAGE.PB.OBJ
^C:\USERS\USER\DESKTOP\CLOUD TEMA 1 - COPY\GENERATED\HELLOREPLY.GRPC.PB.CC
C:\USERS\USER\DESKTOP\CLOUD TEMA 1 - COPY\CLOUD TEMA 1\DEBUG\GENERATED.PDB
^C:\USERS\USER\DESKTOP\CLOUD TEMA 1 - COPY\GENERATED\HELLOREPLY.PB.CC
C:\USERS\USER\DESKTOP\CLOUD TEMA 1 - COPY\CLOUD TEMA 1\DEBUG\GENERATED.PDB
^C:\USERS\USER\DESKTOP\CLOUD TEMA 1 - COPY\GENERATED\HELLOREQUEST.GRPC.PB.CC
C:\USERS\USER\DESKTOP\CLOUD TEMA 1 - COPY\CLOUD TEMA 1\DEBUG\GENERATED.PDB
^C:\USERS\USER\DESKTOP\CLOUD TEMA 1 - COPY\GENERATED\HELLOREQUEST.PB.CC
C:\USERS\USER\DESKTOP\CLOUD TEMA 1 - COPY\CLOUD TEMA 1\DEBUG\GENERATED.PDB
^C:\USERS\USER\DESKTOP\CLOUD TEMA 1 - COPY\GENERATED\MESSAGE.GRPC.PB.CC
C:\USERS\USER\DESKTOP\CLOUD TEMA 1 - COPY\CLOUD TEMA 1\DEBUG\GENERATED.PDB
^C:\USERS\USER\DESKTOP\CLOUD TEMA 1 - COPY\GENERATED\MESSAGE.PB.CC
C:\USERS\USER\DESKTOP\CLOUD TEMA 1 - COPY\CLOUD TEMA 1\DEBUG\GENERATED.PDB
